setcolour red
drawto100,100
circle  25
moveto 
rectangle
moveto 300,100 50
flibble 50,50
moveto 400
triangle 50,75,thirty
polygon 4,500,100,550,100,575,150,525
setcolour deeppurple
fill on
moveto onehundred,200
circle 25
moveto twohundred,twohundred
rectangle 75,50,100
moveto 300,200
triangle 50,50
moveto 400,200
triangle 50,50,75
polygon 4,525,200,575,200,550,250,500,250,300